R Notebook
…
str() function returns many useful pieces of information, We can find that there are 8 variables to measure the fastest growing companies. Factor in Str() means that variables are categorical variables. They are Name, Industry, City, and State. Numerical variables are: Rank (Integer), Growth_Rate, Revenue, Employees(Integer).

Question 1

Create a graph that shows the distribution of companies in the dataset by State (ie how many are in each state). There are a lot of States, so consider which axis you should use. This visualization is ultimately going to be consumed on a portrait oriented screen (ie taller than wide), which should further guide your layout choices.

library(ggplot2)
library(dplyr)
# Answer Question 1 here

data_state <- inc %>% group_by(State) %>% tally()
data_state

## # A tibble: 52 x 2
##    State     n
##    <fct> <int>
##  1 AK        2
##  2 AL       51
##  3 AR        9
##  4 AZ      100
##  5 CA      701
##  6 CO      134
##  7 CT       50
##  8 DC       43
##  9 DE       16
## 10 FL      282
## # ... with 42 more rows
…
ggsave('Figure2.png')

## Saving 7 x 5 in image

Question 3

Now imagine you work for an investor and want to see which industries generate the most revenue per employee. Create a chart that makes this information clear. Once again, the distribution per industry should be shown.

# Answer Question 3 here

industryEmployee <- inc[complete.cases(inc),] %>% group_by(Industry) %>% summarise(TotRevenue = sum(Revenue), TotEmpl = sum(Employees)) %>% mutate(revPerEmpl = TotRevenue / TotEmpl)
industryEmployee

## # A tibble: 25 x 4
##    Industry                      TotRevenue TotEmpl revPerEmpl
##    <fct>                              <dbl>   <int>      <dbl>
##  1 Advertising & Marketing       7785000000   39731    195943.
##  2 Business Products & Services 26345900000  117357    224494.
##  3 Computer Hardware            11885700000    9714   1223564.
##  4 Construction                 13174300000   29099    452741.
##  5 Consumer Products & Services 14956400000   45464    328972.
##  6 Education                     1139300000    7685    148250.
##  7 Energy                       13771600000   26437    520921.
##  8 Engineering                   2532500000   20435    123930.
##  9 Environmental Services        2638800000   10155    259852.
## 10 Financial Services           13150900000   47693    275741.
## # ... with 15 more rows
…
